{
  "shell_port": 33883,
  "iopub_port": 52371,
  "stdin_port": 41969,
  "control_port": 55463,
  "hb_port": 53191,
  "ip": "127.0.0.1",
  "key": "95dfcf3d-039e177e47e80e9bfd05f4b3",
  "transport": "tcp",
  "signature_scheme": "hmac-sha256",
  "kernel_name": ""
}